{
  "project_info": {
    "project_number": "130003413716",
    "firebase_url": "https://texecutivemain.firebaseio.com",
    "project_id": "texecutivemain",
    "storage_bucket": "texecutivemain.appspot.com"
  },
  "client": [
    {
      "client_info": {
        "mobilesdk_app_id": "1:130003413716:android:7d31099e6bb2c84b",
        "android_client_info": {
          "package_name": "com.smtgroup.texcutive"
        }
      },
      "oauth_client": [
        {
          "client_id": "130003413716-e1aemvp469lhcu5iao617arsu84p6e6g.apps.googleusercontent.com",
          "client_type": 3
        }
      ],
      "api_key": [
        {
          "current_key": "AIzaSyAabCD8r3Oo7I5sUy6I66hKQJrouD0JF3c"
        }
      ],
      "services": {
        "appinvite_service": {
          "other_platform_oauth_client": [
            {
              "client_id": "130003413716-e1aemvp469lhcu5iao617arsu84p6e6g.apps.googleusercontent.com",
              "client_type": 3
            }
          ]
        }
      }
    }
  ],
  "configuration_version": "1"
}